{
    "href": "https://api.spotify.com/v1/me/tracks?offset=0&limit=20",
    "items": [
        {
            "added_at": "2018-04-26T00:10:41Z",
            "track": {
                "album": {
                    "album_type": "album",
                    "artists": [
                        {
                            "external_urls": {
                                "spotify": "https://open.spotify.com/artist/68WRQYQZC7SO79PC8eXvfd"
                            },
                            "href": "https://api.spotify.com/v1/artists/68WRQYQZC7SO79PC8eXvfd",
                            "id": "68WRQYQZC7SO79PC8eXvfd",
                            "name": "Ray Bonneville",
                            "type": "artist",
                            "uri": "spotify:artist:68WRQYQZC7SO79PC8eXvfd"
                        }
                    ],
                    "available_markets": [
                        "AD",
                        "AR",
                        "AT",
                        "AU",
                        "BE",
                        "BG",
                        "BO",
                        "BR",
                        "CA",
                        "CH",
                        "CL",
                        "CO",
                        "CR",
                        "CY",
                        "CZ",
                        "DE",
                        "DK",
                        "DO",
                        "EC",
                        "EE",
                        "ES",
                        "FI",
                        "FR",
                        "GB",
                        "GR",
                        "GT",
                        "HK",
                        "HN",
                        "HU",
                        "ID",
                        "IE",
                        "IL",
                        "IS",
                        "IT",
                        "JP",
                        "LI",
                        "LT",
                        "LU",
                        "LV",
                        "MC",
                        "MT",
                        "MX",
                        "MY",
                        "NI",
                        "NL",
                        "NO",
                        "NZ",
                        "PA",
                        "PE",
                        "PH",
                        "PL",
                        "PT",
                        "PY",
                        "RO",
                        "SE",
                        "SG",
                        "SK",
                        "SV",
                        "TH",
                        "TR",
                        "TW",
                        "US",
                        "UY",
                        "VN",
                        "ZA"
                    ],
                    "external_urls": {
                        "spotify": "https://open.spotify.com/album/1fRuda4dgMhR0U77tLIGj0"
                    },
                    "href": "https://api.spotify.com/v1/albums/1fRuda4dgMhR0U77tLIGj0",
                    "id": "1fRuda4dgMhR0U77tLIGj0",
                    "images": [
                        {
                            "height": 567,
                            "url": "https://i.scdn.co/image/2bd748e691df226fa63325d35433514bed8a93c7",
                            "width": 639
                        },
                        {
                            "height": 266,
                            "url": "https://i.scdn.co/image/22c67148b5a2c2abe1977dc9f1ecb847e42df051",
                            "width": 300
                        },
                        {
                            "height": 57,
                            "url": "https://i.scdn.co/image/41905fc2af60d7008114d5ae8ac24592d959dd18",
                            "width": 64
                        }
                    ],
                    "name": "Goin' By Feel",
                    "release_date": "2008-01-22",
                    "release_date_precision": "day",
                    "total_tracks": 12,
                    "type": "album",
                    "uri": "spotify:album:1fRuda4dgMhR0U77tLIGj0"
                },
                "artists": [
                    {
                        "external_urls": {
                            "spotify": "https://open.spotify.com/artist/68WRQYQZC7SO79PC8eXvfd"
                        },
                        "href": "https://api.spotify.com/v1/artists/68WRQYQZC7SO79PC8eXvfd",
                        "id": "68WRQYQZC7SO79PC8eXvfd",
                        "name": "Ray Bonneville",
                        "type": "artist",
                        "uri": "spotify:artist:68WRQYQZC7SO79PC8eXvfd"
                    }
                ],
                "available_markets": [
                    "AD",
                    "AR",
                    "AT",
                    "AU",
                    "BE",
                    "BG",
                    "BO",
                    "BR",
                    "CA",
                    "CH",
                    "CL",
                    "CO",
                    "CR",
                    "CY",
                    "CZ",
                    "DE",
                    "DK",
                    "DO",
                    "EC",
                    "EE",
                    "ES",
                    "FI",
                    "FR",
                    "GB",
                    "GR",
                    "GT",
                    "HK",
                    "HN",
                    "HU",
                    "ID",
                    "IE",
                    "IL",
                    "IS",
                    "IT",
                    "JP",
                    "LI",
                    "LT",
                    "LU",
                    "LV",
                    "MC",
                    "MT",
                    "MX",
                    "MY",
                    "NI",
                    "NL",
                    "NO",
                    "NZ",
                    "PA",
                    "PE",
                    "PH",
                    "PL",
                    "PT",
                    "PY",
                    "RO",
                    "SE",
                    "SG",
                    "SK",
                    "SV",
                    "TH",
                    "TR",
                    "TW",
                    "US",
                    "UY",
                    "VN",
                    "ZA"
                ],
                "disc_number": 1,
                "duration_ms": 226453,
                "explicit": false,
                "external_ids": {
                    "isrc": "USRHR0820612"
                },
                "external_urls": {
                    "spotify": "https://open.spotify.com/track/0rUPWD5xxlpRXAW8cIzCR6"
                },
                "href": "https://api.spotify.com/v1/tracks/0rUPWD5xxlpRXAW8cIzCR6",
                "id": "0rUPWD5xxlpRXAW8cIzCR6",
                "is_local": false,
                "name": "Cool Cool Rain",
                "popularity": 40,
                "preview_url": "https://p.scdn.co/mp3-preview/5f2170d6e35f678d04e1286e6befd71911b11c21?cid=baa8b0e6a0cf4aaaa442b5b11a343660",
                "track_number": 12,
                "type": "track",
                "uri": "spotify:track:0rUPWD5xxlpRXAW8cIzCR6"
            }
        },
        {
            "added_at": "2018-04-08T16:30:32Z",
            "track": {
                "album": {
                    "album_type": "album",
                    "artists": [
                        {
                            "external_urls": {
                                "spotify": "https://open.spotify.com/artist/320TrJub4arztwXRm7kqVO"
                            },
                            "href": "https://api.spotify.com/v1/artists/320TrJub4arztwXRm7kqVO",
                            "id": "320TrJub4arztwXRm7kqVO",
                            "name": "Dr. John",
                            "type": "artist",
                            "uri": "spotify:artist:320TrJub4arztwXRm7kqVO"
                        }
                    ],
                    "available_markets": [
                        "AD",
                        "AR",
                        "AT",
                        "AU",
                        "BE",
                        "BG",
                        "BO",
                        "BR",
                        "CA",
                        "CH",
                        "CL",
                        "CO",
                        "CR",
                        "CY",
                        "CZ",
                        "DE",
                        "DK",
                        "DO",
                        "EC",
                        "EE",
                        "ES",
                        "FI",
                        "FR",
                        "GB",
                        "GR",
                        "GT",
                        "HK",
                        "HN",
                        "HU",
                        "ID",
                        "IE",
                        "IL",
                        "IS",
                        "IT",
                        "JP",
                        "LI",
                        "LT",
                        "LU",
                        "LV",
                        "MC",
                        "MT",
                        "MX",
                        "MY",
                        "NI",
                        "NL",
                        "NO",
                        "NZ",
                        "PA",
                        "PE",
                        "PH",
                        "PL",
                        "PT",
                        "PY",
                        "RO",
                        "SE",
                        "SG",
                        "SK",
                        "SV",
                        "TH",
                        "TR",
                        "TW",
                        "US",
                        "UY",
                        "VN",
                        "ZA"
                    ],
                    "external_urls": {
                        "spotify": "https://open.spotify.com/album/1b1ljTXAkcugOLAHkIi7Eq"
                    },
                    "href": "https://api.spotify.com/v1/albums/1b1ljTXAkcugOLAHkIi7Eq",
                    "id": "1b1ljTXAkcugOLAHkIi7Eq",
                    "images": [
                        {
                            "height": 640,
                            "url": "https://i.scdn.co/image/fde0e96aeda9e1d6b7cdc33c835f949c2755328e",
                            "width": 640
                        },
                        {
                            "height": 300,
                            "url": "https://i.scdn.co/image/76ba2dd8816eb2374685a29ee74da45240e8fe54",
                            "width": 300
                        },
                        {
                            "height": 64,
                            "url": "https://i.scdn.co/image/57c900f72d39c75367cbe565cd01ee347488329e",
                            "width": 64
                        }
                    ],
                    "name": "In The Right Place",
                    "release_date": "1973",
                    "release_date_precision": "year",
                    "total_tracks": 11,
                    "type": "album",
                    "uri": "spotify:album:1b1ljTXAkcugOLAHkIi7Eq"
                },
                "artists": [
                    {
                        "external_urls": {
                            "spotify": "https://open.spotify.com/artist/320TrJub4arztwXRm7kqVO"
                        },
                        "href": "https://api.spotify.com/v1/artists/320TrJub4arztwXRm7kqVO",
                        "id": "320TrJub4arztwXRm7kqVO",
                        "name": "Dr. John",
                        "type": "artist",
                        "uri": "spotify:artist:320TrJub4arztwXRm7kqVO"
                    }
                ],
                "available_markets": [
                    "AD",
                    "AR",
                    "AT",
                    "AU",
                    "BE",
                    "BG",
                    "BO",
                    "BR",
                    "CA",
                    "CH",
                    "CL",
                    "CO",
                    "CR",
                    "CY",
                    "CZ",
                    "DE",
                    "DK",
                    "DO",
                    "EC",
                    "EE",
                    "ES",
                    "FI",
                    "FR",
                    "GB",
                    "GR",
                    "GT",
                    "HK",
                    "HN",
                    "HU",
                    "ID",
                    "IE",
                    "IL",
                    "IS",
                    "IT",
                    "JP",
                    "LI",
                    "LT",
                    "LU",
                    "LV",
                    "MC",
                    "MT",
                    "MX",
                    "MY",
                    "NI",
                    "NL",
                    "NO",
                    "NZ",
                    "PA",
                    "PE",
                    "PH",
                    "PL",
                    "PT",
                    "PY",
                    "RO",
                    "SE",
                    "SG",
                    "SK",
                    "SV",
                    "TH",
                    "TR",
                    "TW",
                    "US",
                    "UY",
                    "VN",
                    "ZA"
                ],
                "disc_number": 1,
                "duration_ms": 175240,
                "explicit": false,
                "external_ids": {
                    "isrc": "USAT20001805"
                },
                "external_urls": {
                    "spotify": "https://open.spotify.com/track/0I2ELF6uHlL4ABu9aFiou7"
                },
                "href": "https://api.spotify.com/v1/tracks/0I2ELF6uHlL4ABu9aFiou7",
                "id": "0I2ELF6uHlL4ABu9aFiou7",
                "is_local": false,
                "name": "Right Place Wrong Time",
                "popularity": 58,
                "preview_url": "https://p.scdn.co/mp3-preview/c87af0e1c43fa372cc2d27fbb1ce625d49f1f042?cid=baa8b0e6a0cf4aaaa442b5b11a343660",
                "track_number": 1,
                "type": "track",
                "uri": "spotify:track:0I2ELF6uHlL4ABu9aFiou7"
            }
        }
    ],
    "limit": 20,
    "next": "https://api.spotify.com/v1/me/tracks?offset=20&limit=20",
    "offset": 0,
    "previous": null,
    "total": 35
}